<?xml version="1.0" encoding="UTF-8" standalone="no"?>
<svg width="100px" height="100px" viewBox="0 0 100 100" version="1.1" xmlns="http://www.w3.org/2000/svg" xmlns:xlink="http://www.w3.org/1999/xlink" xmlns:sketch="http://www.bohemiancoding.com/sketch/ns">
    <!-- Generator: Sketch 3.5 (25232) - http://www.bohemiancoding.com/sketch -->
    <title>vitality</title>
    <desc>Created with Sketch.</desc>
    <defs></defs>
    <g id="Page-1" stroke="none" stroke-width="1" fill="none" fill-rule="evenodd" sketch:type="MSPage">
        <g id="agility" sketch:type="MSLayerGroup" transform="translate(-79.000000, -1.000000)" fill="#FFFFFF">
            <polygon id="Triangle-1-Copy" sketch:type="MSShapeGroup" transform="translate(48.819805, 31.819805) scale(1, -1) rotate(-225.000000) translate(-48.819805, -31.819805) " points="48.8198052 16.8198052 78.8198052 46.8198052 18.8198052 46.8198052 "></polygon>
        </g>
        <g id="vitality" sketch:type="MSLayerGroup" transform="translate(20.000000, 20.000000)" fill="#FFFFFF">
            <rect id="Rectangle-6" sketch:type="MSShapeGroup" x="20" y="0" width="20" height="60"></rect>
            <rect id="Rectangle-6-Copy" sketch:type="MSShapeGroup" transform="translate(30.000000, 30.000000) rotate(-270.000000) translate(-30.000000, -30.000000) " x="20" y="0" width="20" height="60"></rect>
        </g>
        <g id="energy" sketch:type="MSLayerGroup" transform="translate(-101.000000, 99.000000)" fill="#FFFFFF">
            <polygon id="Triangle-7" sketch:type="MSShapeGroup" transform="translate(70.819805, 31.819805) rotate(-315.000000) translate(-70.819805, -31.819805) " points="70.8198052 16.8198052 100.819805 46.8198052 40.8198052 46.8198052 "></polygon>
        </g>
    </g>
</svg>